1,2
2,3
3,1
4,2
5,2
6,1
7,2
8,2
9,1
10,2
11,1
12,1
13,2
14,3
15,1
16,2
17,3
18,2
19,2
20,3
21,1
22,2
23,3
24,1
25,2
26,3
27,2
28,3
29,1
30,2
31,3
32,1
33,2
34,3
35,1
36,2
37,3
38,1
39,2
40,3
41,1
42,2
43,3
44,1
45,2
46,3
47,1
48,2
49,3
50,3
