1,3
2,2
3,3
4,1
5,2
6,3
7,1
8,2
9,3
10,1
11,2
12,3
13,1
14,2
15,3
16,1
17,2
18,3
19,1
20,2
21,3
22,1
23,2
24,3
25,1
26,2
27,3
28,1
29,2
30,3
31,1
32,2
33,3
34,1
35,2
36,3
37,1
38,2
39,3
40,1
41,2
42,3
43,1
44,2
45,3
46,1
47,2
48,3
49,1
50,1
